{
  "data": [
    {
      "id": "9c5b88e2-44a1-4f01-89ac-aabb11223344",
      "started_at": "2026-05-07T09:00:00.000Z",
      "finished_at": null,
      "status": "running",
      "total_jobs": 200,
      "succeeded": 145,
      "failed": 3,
      "retried": 5,
      "metadata": {}
    },
    {
      "id": "8b1c5e30-3c8a-4933-8c11-eeff99887766",
      "started_at": "2026-05-06T09:00:00.000Z",
      "finished_at": "2026-05-06T09:32:14.000Z",
      "status": "completed",
      "total_jobs": 200,
      "succeeded": 196,
      "failed": 4,
      "retried": 0,
      "metadata": {}
    },
    {
      "id": "7a02d4f8-2bc1-46e2-9012-001122334455",
      "started_at": "2026-05-05T09:00:00.000Z",
      "finished_at": "2026-05-05T09:38:07.000Z",
      "status": "completed",
      "total_jobs": 200,
      "succeeded": 121,
      "failed": 79,
      "retried": 12,
      "metadata": {}
    },
    {
      "id": "6913c3e7-1abc-45d1-8901-aabbccddee01",
      "started_at": "2026-05-04T09:00:00.000Z",
      "finished_at": "2026-05-04T09:31:48.000Z",
      "status": "completed",
      "total_jobs": 200,
      "succeeded": 200,
      "failed": 0,
      "retried": 1,
      "metadata": {}
    },
    {
      "id": "5824b2d6-09ab-44c0-7890-99aabbccdd02",
      "started_at": "2026-05-03T09:00:00.000Z",
      "finished_at": "2026-05-03T09:30:55.000Z",
      "status": "completed",
      "total_jobs": 200,
      "succeeded": 198,
      "failed": 2,
      "retried": 0,
      "metadata": {}
    }
  ],
  "pagination": { "page": 1, "limit": 10, "total": 38, "totalPages": 4 },
  "meta": { "ts": "2026-05-07T18:30:14.679Z" }
}
